[gd_scene load_steps=5 format=3 uid="uid://fcn2vh2wqd2p"]

[ext_resource type="Script" path="res://actors/houses/house.gd" id="1_f7hx0"]
[ext_resource type="Texture2D" uid="uid://b4lu43bgpnghb" path="res://assets/sprites.png" id="2_0m0y3"]

[sub_resource type="RectangleShape2D" id="RectangleShape2D_kkn2d"]
size = Vector2(5, 24)

[sub_resource type="RectangleShape2D" id="RectangleShape2D_ve70t"]
size = Vector2(29, 5)

[node name="house" type="Area2D"]
script = ExtResource("1_f7hx0")

[node name="sprite1" type="Sprite2D" parent="."]
visible = false
position = Vector2(0, -8)
texture = ExtResource("2_0m0y3")
region_enabled = true
region_rect = Rect2(0, 32, 48, 16)

[node name="shape1" type="CollisionShape2D" parent="."]
visible = false
position = Vector2(-3, -4)
rotation = 1.5708
shape = SubResource("RectangleShape2D_kkn2d")

[node name="sprite2" type="Sprite2D" parent="."]
visible = false
position = Vector2(0, -8)
texture = ExtResource("2_0m0y3")
region_enabled = true
region_rect = Rect2(48, 32, 48, 16)

[node name="shape2" type="CollisionShape2D" parent="."]
visible = false
position = Vector2(0, -4)
shape = SubResource("RectangleShape2D_ve70t")
