[gd_scene load_steps=3 format=3 uid="uid://djfh4r12tllqs"]

[ext_resource type="PackedScene" uid="uid://ixgwjc3ylp6" path="res://actors/houses/house_1.tscn" id="1_nyhsj"]
[ext_resource type="PackedScene" uid="uid://c8t41tie2dss8" path="res://actors/houses/house_2.tscn" id="2_w8ool"]

[node name="demo_houses" type="Node2D"]

[node name="house_1" parent="." instance=ExtResource("1_nyhsj")]
position = Vector2(65, 126)

[node name="house_2" parent="." instance=ExtResource("2_w8ool")]
position = Vector2(120, 110)
