[gd_scene load_steps=3 format=3 uid="uid://cisisfhwniwb6"]

[ext_resource type="Script" path="res://actor/background/background.gd" id="1_j5qd5"]
[ext_resource type="PackedScene" uid="uid://dlj123l85kdp6" path="res://actor/background/star.tscn" id="2_ecyas"]

[node name="background" type="Node2D"]
script = ExtResource("1_j5qd5")
StarScene = ExtResource("2_ecyas")

[node name="ColorRect" type="ColorRect" parent="."]
z_index = -1
offset_right = 305.0
offset_bottom = 304.0
color = Color(0, 0, 0, 1)

[node name="temp" type="Node2D" parent="."]
