[gd_scene load_steps=4 format=3 uid="uid://da6dmlh81omrs"]

[ext_resource type="PackedScene" uid="uid://cl1hpe74dnaag" path="res://demo/ramp/player.tscn" id="1_03r1d"]
[ext_resource type="PackedScene" uid="uid://cw2esxtxyub76" path="res://demo/ramp/obstacle.tscn" id="2_5a6jq"]
[ext_resource type="PackedScene" uid="uid://b64wxbu7in6ej" path="res://demo/ramp/ramp.tscn" id="3_sb6xe"]

[node name="world" type="Node2D"]
y_sort_enabled = true

[node name="player" parent="." instance=ExtResource("1_03r1d")]
position = Vector2(70, 89)

[node name="obstacle" parent="." instance=ExtResource("2_5a6jq")]
position = Vector2(133, 94)

[node name="ramp" parent="." instance=ExtResource("3_sb6xe")]
position = Vector2(203, 88)
