[gd_scene load_steps=5 format=3 uid="uid://cu3kdvoy0v7w5"]

[ext_resource type="PackedScene" uid="uid://cskwxx3gqniww" path="res://actors/background/background.tscn" id="1_63tcc"]
[ext_resource type="PackedScene" uid="uid://djfh4r12tllqs" path="res://actors/background/demo_houses.tscn" id="2_ppkoi"]
[ext_resource type="PackedScene" uid="uid://bl6p4uqutys5g" path="res://actors/player/player.tscn" id="2_v7d4i"]
[ext_resource type="PackedScene" uid="uid://b1d60pggpi8v4" path="res://actors/background/demo_tuskens.tscn" id="3_3cjyl"]

[node name="demo01" type="Node2D"]

[node name="background" parent="." instance=ExtResource("1_63tcc")]

[node name="demo_houses" parent="." instance=ExtResource("2_ppkoi")]

[node name="demo_tuskens" parent="." instance=ExtResource("3_3cjyl")]

[node name="player" parent="." instance=ExtResource("2_v7d4i")]
position = Vector2(43, 155)
