[gd_scene load_steps=7 format=3 uid="uid://cl1hpe74dnaag"]

[ext_resource type="Texture2D" uid="uid://cwour7ael0waw" path="res://demo/sprites.png" id="1_18iia"]
[ext_resource type="Script" path="res://demo/player.gd" id="1_gbduq"]
[ext_resource type="Script" path="res://demo/land.gd" id="3_kngx5"]
[ext_resource type="Script" path="res://demo/ramp.gd" id="4_o13lj"]
[ext_resource type="Script" path="res://demo/air.gd" id="5_3lena"]

[sub_resource type="RectangleShape2D" id="RectangleShape2D_kmxgu"]
size = Vector2(6.5, 9)

[node name="player" type="Area2D"]
script = ExtResource("1_gbduq")

[node name="sprite" type="Sprite2D" parent="."]
texture = ExtResource("1_18iia")
offset = Vector2(0, -4)
region_enabled = true
region_rect = Rect2(0, 24, 16, 8)

[node name="shape" type="CollisionShape2D" parent="."]
position = Vector2(4, -4)
shape = SubResource("RectangleShape2D_kmxgu")

[node name="land" type="Node" parent="."]
script = ExtResource("3_kngx5")

[node name="ramp" type="Node" parent="."]
script = ExtResource("4_o13lj")

[node name="air" type="Node" parent="."]
script = ExtResource("5_3lena")

[connection signal="area_entered" from="." to="." method="_on_area_entered"]
[connection signal="area_exited" from="." to="." method="_on_area_exited"]
