[gd_scene load_steps=7 format=3 uid="uid://kdw85hemq3f3"]

[ext_resource type="Texture2D" uid="uid://pm21ask35g0p" path="res://assets/sprites.png" id="1_02fj6"]
[ext_resource type="Script" path="res://actor/enemy/explosion.gd" id="1_s0rac"]
[ext_resource type="AudioStream" uid="uid://bul0xmxvqif8y" path="res://assets/sfx/explosion.wav" id="2_wi8fr"]

[sub_resource type="Animation" id="Animation_w5cs3"]
length = 0.001
tracks/0/type = "value"
tracks/0/imported = false
tracks/0/enabled = true
tracks/0/path = NodePath("sprite:frame")
tracks/0/interp = 1
tracks/0/loop_wrap = true
tracks/0/keys = {
"times": PackedFloat32Array(0),
"transitions": PackedFloat32Array(1),
"update": 1,
"values": [0]
}
tracks/1/type = "value"
tracks/1/imported = false
tracks/1/enabled = true
tracks/1/path = NodePath("sprite:visible")
tracks/1/interp = 1
tracks/1/loop_wrap = true
tracks/1/keys = {
"times": PackedFloat32Array(0),
"transitions": PackedFloat32Array(1),
"update": 1,
"values": [false]
}

[sub_resource type="Animation" id="Animation_4b05n"]
resource_name = "default"
length = 0.8
step = 0.05
tracks/0/type = "value"
tracks/0/imported = false
tracks/0/enabled = true
tracks/0/path = NodePath("sprite:frame")
tracks/0/interp = 1
tracks/0/loop_wrap = true
tracks/0/keys = {
"times": PackedFloat32Array(0, 0.05, 0.2, 0.4),
"transitions": PackedFloat32Array(1, 1, 1, 1),
"update": 1,
"values": [0, 1, 2, 3]
}
tracks/1/type = "value"
tracks/1/imported = false
tracks/1/enabled = true
tracks/1/path = NodePath("sprite:visible")
tracks/1/interp = 1
tracks/1/loop_wrap = true
tracks/1/keys = {
"times": PackedFloat32Array(0, 0.6),
"transitions": PackedFloat32Array(1, 1),
"update": 1,
"values": [true, false]
}
tracks/2/type = "method"
tracks/2/imported = false
tracks/2/enabled = true
tracks/2/path = NodePath(".")
tracks/2/interp = 1
tracks/2/loop_wrap = true
tracks/2/keys = {
"times": PackedFloat32Array(0.8),
"transitions": PackedFloat32Array(1),
"values": [{
"args": [],
"method": &"queue_free"
}]
}

[sub_resource type="AnimationLibrary" id="AnimationLibrary_hjrjc"]
_data = {
"RESET": SubResource("Animation_w5cs3"),
"default": SubResource("Animation_4b05n")
}

[node name="explosion" type="Node2D"]
script = ExtResource("1_s0rac")

[node name="audio" type="AudioStreamPlayer2D" parent="."]
stream = ExtResource("2_wi8fr")
volume_db = 10.0
pitch_scale = 0.7
autoplay = true

[node name="sprite" type="Sprite2D" parent="."]
visible = false
texture = ExtResource("1_02fj6")
hframes = 4
region_enabled = true
region_rect = Rect2(16, 0, 64, 16)

[node name="anim" type="AnimationPlayer" parent="."]
autoplay = "default"
libraries = {
"": SubResource("AnimationLibrary_hjrjc")
}
